…
Before we remove any data, here are the sample sizes for each species. Only the species with PFA samples will be affected.


```r
specimens %>%
  group_by(genus_species) %>%
  count(Preservation)
```

```{style="max-height: 300px;"}
## # A tibble: 37 × 3
## # Groups:   genus_species [16]
##    genus_species                Preservation         n
##    <chr>                        <chr>            <int>
##  1 Allosergestes_pectinatus     ethanol              5
##  2 Allosergestes_pectinatus     fresh                3
##  3 Allosergestes_pectinatus     paraformaldehyde     6
##  4 Allosergestes_sargassi       ethanol              8
##  5 Allosergestes_sargassi       fresh               26
##  6 Allosergestes_sargassi       paraformaldehyde     3
##  7 Challengerosergia_hansjacobi ethanol             30
##  8 Challengerosergia_hansjacobi fresh                2
##  9 Challengerosergia_hansjacobi paraformaldehyde    11
## 10 Challengerosergia_talismani  ethanol             20
## # … with 27 more rows
```
…
This removes 45 data points from our data set. 

Here are the new sample sizes:


```r
specimens2 %>%
  group_by(genus_species) %>%
  count(Preservation)
```

```{style="max-height: 300px;"}
## # A tibble: 28 × 3
## # Groups:   genus_species [16]
##    genus_species                Preservation     n
##    <chr>                        <chr>        <int>
##  1 Allosergestes_pectinatus     ethanol          5
##  2 Allosergestes_pectinatus     fresh            3
##  3 Allosergestes_sargassi       ethanol          8
##  4 Allosergestes_sargassi       fresh           26
##  5 Challengerosergia_hansjacobi ethanol         30
##  6 Challengerosergia_hansjacobi fresh            2
##  7 Challengerosergia_talismani  ethanol         20
##  8 Challengerosergia_talismani  fresh           11
##  9 Deosergestes_corniculum      ethanol         16
## 10 Deosergestes_corniculum      fresh            2
## # … with 18 more rows
```
…
